Modern Research Computing
…
The result from that filter operation is another (smaller) data set that becomes the object for the next verb: select. Like its SQL counterpart (typically written SELECT in SQL circles), select chooses the columns of the data set that are to be retained. For this query, we want the permno and, to check we have the right company, the company’s name (comnam).

dsf <- tbl(pg, sql("SELECT * FROM crsp.dsf"))

amzn_rets <-
  dsf %>% 
  filter(permno == 84788L) %>%
  select(permno, date, ret, prc) %>%
  mutate(prc = abs(prc)) %>%
  collect()

amzn_rets

## # A tibble: 4,941 × 4
##    permno       date       ret     prc
## *   <int>     <date>     <dbl>   <dbl>
## 1   84788 1997-05-15        NA 23.5000
## 2   84788 1997-05-16 -0.117021 20.7500
## 3   84788 1997-05-19 -0.012048 20.5000
## 4   84788 1997-05-20 -0.042683 19.6250
## 5   84788 1997-05-21 -0.127389 17.1250
## 6   84788 1997-05-22 -0.021898 16.7500
## 7   84788 1997-05-23  0.074627 18.0000
## 8   84788 1997-05-27  0.055556 19.0000
## 9   84788 1997-05-28 -0.032895 18.3750
## 10  84788 1997-05-29 -0.017007 18.0625
## # ... with 4,931 more rows
…
